{
  "project_info": {
    "project_number": "373116632600",
    "project_id": "weatherapp-7058b",
    "storage_bucket": "weatherapp-7058b.appspot.com"
  },
  "client": [
    {
      "client_info": {
        "mobilesdk_app_id": "1:373116632600:android:292c40668b72b49c18cd6d",
        "android_client_info": {
          "package_name": "com.moody.weather"
        }
      },
      "oauth_client": [
        {
          "client_id": "373116632600-t2l809ka90g87nk0mkkcgltj3ibnmrtu.apps.googleusercontent.com",
          "client_type": 3
        }
      ],
      "api_key": [
        {
          "current_key": "AIzaSyDqD1xY_go9PnkE4-edLD3zkQ2318A8Q1Q"
        }
      ],
      "services": {
        "appinvite_service": {
          "other_platform_oauth_client": [
            {
              "client_id": "373116632600-t2l809ka90g87nk0mkkcgltj3ibnmrtu.apps.googleusercontent.com",
              "client_type": 3
            }
          ]
        }
      }
    }
  ],
  "configuration_version": "1"
}